31137910;-15.57
31137910;-15.14
31137910;-16.29
31137910;-15.64
31137910;-15.81
31137910;-16.33
31137910;-15.52
31137910;-16.52
31137910;-15.70
31137910;-15.86
31137910;-16.37
31137910;-15.53
31137910;-16.50
31137910;-15.86
31137910;-16.08
31137910;-15.53
31137910;-16.68
31137910;-15.76
31137910;-16.19
31137910;-16.37
31137910;-15.48
31137910;-16.67
31137910;-15.70
31137910;-16.24
31137910;-16.30
31137910;-15.50
31137910;-16.65
31137910;-15.60
31137910;-16.24
31137910;-16.03
31137910;-16.76
31137910;-15.65
31137910;-16.25
31137910;-16.19
31137910;-15.99
31137910;-16.96
31137910;-15.96
31137910;-16.82
31137910;-16.40
31137910;-15.98
31137910;-16.79
31137910;-15.70
31137910;-16.68
31137910;-15.88
31137910;-16.89
31137910;-15.99
31137910;-16.93
31137910;-16.28
31137910;-16.22
31137910;-17.02
31137910;-15.88
31137910;-16.87
31137910;-16.18
31137910;-16.39
31137910;-16.97
31137910;-16.85
31137910;-16.44
31137910;-16.86
31137910;-15.96
31137910;-16.98
31137910;-16.12
31137910;-16.43
31137910;-16.75
31137910;-16.06
31137910;-17.02
31137910;-16.61
31137910;-16.89
31137910;-16.18
31137910;-17.23
31137910;-16.49
31137910;-16.83
31137910;-16.77
31137910;-16.22
31137910;-17.15
31137910;-16.38
31137910;-16.87
31137910;-16.87
31137910;-16.42
31137910;-17.26
31137910;-16.35
31137910;-17.01
31137910;-16.94
31137910;-16.43
31137910;-17.20
31137910;-16.45
31137910;-16.90
31137910;-16.67
31137910;-17.24
31137910;-16.27
31137910;-17.05
31137910;-16.95
31137910;-16.71
31137910;-17.34
31137910;-16.69
31137910;-17.39
31137910;-16.99
31137910;-16.78
31137910;-17.41
31137910;-16.52
31137910;-17.43
31137910;-16.99
31137910;-17.41
31137910;-16.60
31137910;-17.52
31137910;-16.87
31137910;-16.93
31137910;-17.38
31137910;-16.49
31137910;-17.51
31137910;-16.81
31137910;-16.82
31137910;-17.28
31137910;-16.59
31137910;-17.55
31137910;-16.85
31137910;-17.17
31137910;-17.43
31137910;-16.71
31137910;-17.30
31137910;-16.69
31137910;-17.65
31137910;-17.22
31137910;-17.22
31137910;-16.70
31137910;-17.67
31137910;-16.97
31137910;-17.58
31137910;-17.55
31137910;-17.06
31137910;-17.85
31137910;-16.97
31137910;-17.63
31137910;-17.60
31137910;-17.32
31137910;-17.98
31137910;-17.03
31137910;-17.78
31137910;-17.64
31137910;-17.27
31137910;-17.84
31137910;-17.74
31137910;-17.47
31137910;-17.05
31137910;-17.91
31137910;-17.10
31137910;-17.86
31137910;-17.39
31137910;-17.32
31137910;-18.10
31137910;-17.03
31137910;-18.19
31137910;-17.39
31137910;-17.69
31137910;-18.30
31137910;-17.36
31137910;-17.55
31137910;-17.97
31137910;-18.17
31137910;-17.44
31137910;-18.26
31137910;-17.53
31137910;-17.76
31137910;-17.85
31137910;-17.41
31137910;-18.26
31137910;-17.35
31137910;-17.74
31137910;-18.20
31137910;-17.69
31137910;-18.42
31137910;-17.55
31137910;-17.94
31137910;-17.97
31137910;-17.54
31137910;-18.40
31137910;-18.16
31137910;-18.26
31137910;-17.89
31137910;-18.71
31137910;-17.39
31137910;-18.29
31137910;-18.65
31137910;-17.47
31137910;-18.54
31137910;-17.91
31137910;-17.72
31137910;-18.62
31137910;-17.44
31137910;-18.79
31137910;-18.07
31137910;-17.84
31137910;-19.23
31137910;-16.94
31137910;12494.62
31137910;-17.88
31137910;-19.14
31137910;-17.45
31137910;-19.32
31137910;-17.89
31137910;-18.38
31137910;-19.45
31137910;-16.78
31137910;12494.65
31137910;-17.94
31137910;-18.91
31137910;-19.07
31137910;-17.51
31137910;12494.20
31137910;-18.08
31137910;12494.64
31137910;-19.07
31137910;12492.72
31137910;-19.57
31137910;12493.05
31137910;12493.33
31137910;12494.63
31137910;12492.37
31137910;12494.75
31137910;12492.87
31137910;12493.46
31137910;12494.45
31137910;12492.52
31137910;12494.52
31137910;12492.86
31137910;12493.29
31137910;12493.83
31137910;12494.44
31137910;12492.64
31137910;12493.72
31137910;12494.12
31137910;12492.68
31137910;12494.54
31137910;12492.71
31137910;12493.46
31137910;12493.78
31137910;12492.66
31137910;12494.68
31137910;12492.81
31137910;12493.82
31137910;12492.62
31137910;-19.41
31137910;12493.90
31137910;12492.21
31137910;12494.45
31137910;12491.76
31137910;12493.00
31137910;12492.10
31137910;12494.25
31137910;12491.71
31137910;12493.94
31137910;12493.00
31137910;12494.39
31137910;12491.74
31137910;12493.98
31137910;12492.51
31137910;12492.32
31137910;12493.97
31137910;12493.77
31137910;12492.06
31137910;12492.14
31137910;12493.61
31137910;12491.11
31137910;12493.77
31137910;12491.96
31137910;12493.18
31137910;12490.87
31137910;12493.47
31137910;12491.44
31137910;12493.01
31137910;12490.51
31137910;12493.10
31137910;12490.74
31137910;12491.40
31137910;12492.07
31137910;12490.23
31137910;12490.46
31137910;12491.57
31137910;12491.82
31137910;12490.08
31137910;12492.57
31137910;12490.13
31137910;12491.59
31137910;12490.21
31137910;12492.77
31137910;12490.12
31137910;12491.71
31137910;12491.49
31137910;12492.57
31137910;12489.77
31137910;12491.81
31137910;12491.35
31137910;12490.34
31137910;12489.89
31137910;12492.06
31137910;12491.12
31137910;12490.41
31137910;12492.36
31137910;12489.76
31137910;12490.63
31137910;12490.19
31137910;12492.22
31137910;12489.82
31137910;12492.09
31137910;12490.66
31137910;12489.77
31137910;12492.25
31137910;12490.50
31137910;12491.97
31137910;12489.57
31137910;12492.21
31137910;12490.38
31137910;12490.82
31137910;12491.89
31137910;12492.10
31137910;12490.08
31137910;12490.78
31137910;12491.66
31137910;12489.71
31137910;12492.30
31137910;12490.94
31137910;12491.59
31137910;12489.74
31137910;12492.22
31137910;12489.79
31137910;12491.46
31137910;12489.74
31137910;12492.19
31137910;12489.74
31137910;12491.28
31137910;12491.18
31137910;12492.21
31137910;12489.68
31137910;12491.45
31137910;12491.10
31137910;12489.86
31137910;12492.16
31137910;12489.70
31137910;12490.75
31137910;12489.88
31137910;12491.98
31137910;12489.42
31137910;12491.51
31137910;12490.60
31137910;12492.00
31137910;12489.41
31137910;12491.59
31137910;12490.34
31137910;12489.93
31137910;12489.46
31137910;12491.73
31137910;12490.36
31137910;12490.19
31137910;12491.52
31137910;12489.07
31137910;12490.12
31137910;12490.35
31137910;12491.64
31137910;12489.13
31137910;12491.57
31137910;12489.74
31137910;12491.37
31137910;12489.47
31137910;12492.46
31137910;12490.67
31137910;12491.68
31137910;12492.54
31137910;12493.46
31137910;12492.90
31137910;12492.88
31137910;12493.58
31137910;12492.53
31137910;12493.13
31137910;12493.08
31137910;12492.41
31137910;12492.66
31137910;12492.88
31137910;12492.82
31137910;12492.58
31137910;12493.21
31137910;12492.60
31137910;12493.08
31137910;12492.63
31137910;12493.35
31137910;12492.78
31137910;12493.09
31137910;12493.15
31137910;12493.20
31137910;12492.39
31137910;12492.81
31137910;12493.01
31137910;12492.79
31137910;12493.42
31137910;12492.59
31137910;12493.08
31137910;12492.67
31137910;12492.34
31137910;12489.58
31137910;12490.97
31137910;12488.18
31137910;12485.33
31137910;12484.91
31137910;12484.72
31137910;12484.59
31137910;12484.62
31137910;12486.11
31137910;12486.73
31137910;12488.52
31137910;12486.89
31137910;12488.54
31137910;12486.56
31137910;-18.73
31137910;-18.04
31137910;-14.62
31137910;-17.92
31137910;-15.12
31137910;-16.19
31137910;-14.58
31137910;-17.77
31137910;-15.11
31137910;-16.29
31137910;-16.57
31137910;-14.54
31137910;-14.86
31137910;-16.45
31137910;-16.67
31137910;-14.78
31137910;-17.36
31137910;-16.11
31137910;-12.61
31137910;12492.35
31137910;12487.94
31137910;12486.29
31137910;12485.19
31137910;12484.62
31137910;12480.04
31137910;12470.68
31137910;-16.39
31137910;-13.98
31137910;-12.13
31137910;-13.09
31137910;-12.05
31137910;-12.39
31137910;-11.66
31137910;-12.84
31137910;-11.94
31137910;-12.43
31137910;-12.81
31137910;-12.17
31137910;-12.18
31137910;-12.72
31137910;-12.70
31137910;-12.16
31137910;-13.22
31137910;-12.33
31137910;-12.96
31137910;-12.28
31137910;-13.07
31137910;-12.24
0;12483.80
0;12486.16
0;12484.89
0;12488.26
0;12484.04
0;12487.50
0;12484.80
0;12487.76
0;12483.56
0;12487.17
0;12485.00
0;12484.34
0;12482.55
0;12486.49
0;12484.04
0;12484.00
0;12486.52
0;12482.39
0;12483.80
0;12484.48
0;12486.44
0;12482.38
0;12483.79
0;12486.18
0;12482.58
0;12486.90
0;12483.40
0;12485.86
0;12482.57
0;12486.79
0;12482.82
0;12484.79
0;12485.54
0;12486.70
0;12482.72
0;12484.92
0;12484.96
0;12482.43
0;12486.55
0;12485.18
0;12484.78
0;12482.74
0;12486.88
0;12482.63
0;12485.01
0;12483.03
0;12486.83
0;12482.56
0;12485.93
0;12484.51
0;12486.82
0;12482.33
0;12486.21
0;12484.36
0;12483.43
0;12486.53
0;12486.12
0;12483.87
0;12483.48
0;12486.30
0;12482.14
0;12486.54
0;12483.92
0;12486.42
0;12482.43
0;12486.73
0;12483.70
0;12484.46
0;12486.46
0;12486.84
0;12483.29
0;12484.54
0;12486.02
0;12482.23
0;12486.77
0;12484.72
0;12485.76
0;12482.51
0;12486.91
0;12482.93
0;12485.12
0;12483.69
0;12491.46
0;12490.47
0;12492.82
0;12494.25
0;12494.68
0;12492.27
0;12492.50
0;-19.19
0;-19.33
0;12492.60
0;-18.16
0;12488.42
0;12483.57
0;12482.26
0;12485.71
0;12481.64
0;12485.53
0;12483.42
0;12486.61
0;12482.24
0;12486.37
0;12484.09
0;12486.67
0;12482.34
0;12486.66
0;12483.95
0;12484.42
0;12486.52
0;12486.90
0;12483.72
0;12484.64
0;12486.48
0;12482.63
0;12483.70
0;12485.32
0;12486.73
0;12483.16
0;12487.61
0;12483.71
0;12486.37
0;12484.76
0;12490.96
0;12486.22
0;12488.39
0;12484.56
0;12488.83
0;12484.26
0;12487.11
0;12484.18
0;12489.03
0;12484.67
0;12489.55
0;12491.29
0;-11.66
0;12492.63
